%YAML 1.1
%TAG !u! tag:unity3d.com,2011:
--- !u!134 &13400000
PhysicMaterial:
  m_ObjectHideFlags: 0
  m_CorrespondingSourceObject: {fileID: 0}
  m_PrefabInternal: {fileID: 0}
  m_Name: Stone
  dynamicFriction: 0.1
  staticFriction: 0.1
  bounciness: 0
  frictionCombine: 1
  bounceCombine: 0
--- !u!1002 &13400001
EditorExtensionImpl:
  serializedVersion: 6
