%YAML 1.1
%TAG !u! tag:unity3d.com,2011:
--- !u!114 &11400000
MonoBehaviour:
  m_ObjectHideFlags: 0
  m_CorrespondingSourceObject: {fileID: 0}
  m_PrefabInternal: {fileID: 0}
  m_GameObject: {fileID: 0}
  m_Enabled: 1
  m_EditorHideFlags: 0
  m_Script: {fileID: 11500000, guid: 2ed5866b2a2b92a4687c4a56d5585f6b, type: 3}
  m_Name: FootStepsDatabase
  m_EditorClassIdentifier: 
  physicMaterials:
  - physicMaterial: {fileID: 13400000, guid: b13e6bcee240bdc4f96bd497637597e4, type: 2}
    audioclips:
    - {fileID: 8300000, guid: d9a50401294cf994db997588f91d42e3, type: 3}
    - {fileID: 8300000, guid: 9be71da04af2bc54f86d0d71e776b4f6, type: 3}
    - {fileID: 8300000, guid: a02e47b49f3156e40ada3797f5a7a5b7, type: 3}
    - {fileID: 8300000, guid: 6544c41040573c14bb7b76beab3138f9, type: 3}
    - {fileID: 8300000, guid: 02d3537f01013d24284d147c8980b37a, type: 3}
  - physicMaterial: {fileID: 13400000, guid: ba92fb44336020f40bdf294bb66bc9da, type: 2}
    audioclips:
    - {fileID: 8300000, guid: 8b5f07294b230a944869653722ee5684, type: 3}
    - {fileID: 8300000, guid: 7c51e225e1cb00d4baadf7119adaf5e8, type: 3}
    - {fileID: 8300000, guid: 37c855efe1f45cb44974f892b3132433, type: 3}
    - {fileID: 8300000, guid: 0b1f229db8e3fc9438ea38902e4ce197, type: 3}
    - {fileID: 8300000, guid: 379b0fe42121f424a97388c36c19aefe, type: 3}
    - {fileID: 8300000, guid: 441acaaf11081a54e8d56597cb71bec6, type: 3}
    - {fileID: 8300000, guid: 2fc9e832943dc5b4b95f7873252b1f77, type: 3}
    - {fileID: 8300000, guid: 894f78bd81863444681ed37c0cb884f3, type: 3}
  - physicMaterial: {fileID: 13400000, guid: 3aeb7dadc0c69d54d9e5777e9d5631f1, type: 2}
    audioclips:
    - {fileID: 8300000, guid: 9e15e7756734f3c4484c91e8bcc77d74, type: 3}
    - {fileID: 8300000, guid: 4513db3abafcf9c488df295f888f45cc, type: 3}
    - {fileID: 8300000, guid: 050ed2bb7a92e2643873095cd006c060, type: 3}
    - {fileID: 8300000, guid: dc6823614a94e1a41b8f9db0623e2599, type: 3}
    - {fileID: 8300000, guid: d2b9b7a2e0568b94ba554f45b7e7bd57, type: 3}
    - {fileID: 8300000, guid: 1974515f6c1542e468806c12b305fe3e, type: 3}
    - {fileID: 8300000, guid: 9d9526119e41f8a46b24413d3cdf69bf, type: 3}
    - {fileID: 8300000, guid: 8928ff569e8283e44b31fb7f94bd13ef, type: 3}
  - physicMaterial: {fileID: 13400000, guid: 01571ba68fb2dad46aa03094ab219579, type: 2}
    audioclips:
    - {fileID: 8300000, guid: 8f385b56c1683c34e998ae433408f8f8, type: 3}
    - {fileID: 8300000, guid: 06d5ec85bf189dc42af6f771ed2044e5, type: 3}
    - {fileID: 8300000, guid: 0ab6c8d4069ae974aa31e8853691d3ac, type: 3}
    - {fileID: 8300000, guid: a5969bcbc184fe2478763e35ba1016e1, type: 3}
    - {fileID: 8300000, guid: 3966906e3da819648b231d8a82d56df2, type: 3}
    - {fileID: 8300000, guid: 41af3b845d0a506458871575368184a6, type: 3}
    - {fileID: 8300000, guid: 46e8736298f2c154e9df8af45a6944a1, type: 3}
    - {fileID: 8300000, guid: 4b682e69030509e41829aa5f9cde66a5, type: 3}
  terrainTextures:
  - texture: {fileID: 2800000, guid: 3cf543484d2fb7347b203b934a632fa6, type: 3}
    audioclips:
    - {fileID: 8300000, guid: 18f1ff003e8fbdb44aba8266f6e1d168, type: 3}
    - {fileID: 8300000, guid: 59cd085e234f32e4daddd2e589174a96, type: 3}
    - {fileID: 8300000, guid: 2f96d3d47551ed848be9307342dcd667, type: 3}
    - {fileID: 8300000, guid: 4901040e735fd2547870b06a27124c49, type: 3}
    - {fileID: 8300000, guid: 4dcd8f2dc477f5e4aa277ee503048ee8, type: 3}
    - {fileID: 8300000, guid: 15b220b1b01e9d8469f3b754b8eb2a10, type: 3}
    - {fileID: 8300000, guid: 79a7606463e6a0748b531715f315489d, type: 3}
    - {fileID: 8300000, guid: aa859614ff9b2234e8547d93e1cd9e73, type: 3}
  - texture: {fileID: 2800000, guid: 6fddb46842288ce45bac0f4bd1c06029, type: 3}
    audioclips:
    - {fileID: 8300000, guid: 18f1ff003e8fbdb44aba8266f6e1d168, type: 3}
    - {fileID: 8300000, guid: 59cd085e234f32e4daddd2e589174a96, type: 3}
    - {fileID: 8300000, guid: 2f96d3d47551ed848be9307342dcd667, type: 3}
    - {fileID: 8300000, guid: 4901040e735fd2547870b06a27124c49, type: 3}
    - {fileID: 8300000, guid: 4dcd8f2dc477f5e4aa277ee503048ee8, type: 3}
    - {fileID: 8300000, guid: 15b220b1b01e9d8469f3b754b8eb2a10, type: 3}
    - {fileID: 8300000, guid: 79a7606463e6a0748b531715f315489d, type: 3}
    - {fileID: 8300000, guid: aa859614ff9b2234e8547d93e1cd9e73, type: 3}
  - texture: {fileID: 2800000, guid: 2ac139036f538cc42a8301628453cad5, type: 3}
    audioclips:
    - {fileID: 8300000, guid: 18f1ff003e8fbdb44aba8266f6e1d168, type: 3}
    - {fileID: 8300000, guid: 59cd085e234f32e4daddd2e589174a96, type: 3}
    - {fileID: 8300000, guid: 2f96d3d47551ed848be9307342dcd667, type: 3}
    - {fileID: 8300000, guid: 4901040e735fd2547870b06a27124c49, type: 3}
    - {fileID: 8300000, guid: 4dcd8f2dc477f5e4aa277ee503048ee8, type: 3}
    - {fileID: 8300000, guid: 15b220b1b01e9d8469f3b754b8eb2a10, type: 3}
    - {fileID: 8300000, guid: 79a7606463e6a0748b531715f315489d, type: 3}
    - {fileID: 8300000, guid: aa859614ff9b2234e8547d93e1cd9e73, type: 3}
  - texture: {fileID: 2800000, guid: decdade75c933cc498f73a6c9f240760, type: 3}
    audioclips:
    - {fileID: 8300000, guid: 18f1ff003e8fbdb44aba8266f6e1d168, type: 3}
    - {fileID: 8300000, guid: 59cd085e234f32e4daddd2e589174a96, type: 3}
    - {fileID: 8300000, guid: 2f96d3d47551ed848be9307342dcd667, type: 3}
    - {fileID: 8300000, guid: 4901040e735fd2547870b06a27124c49, type: 3}
    - {fileID: 8300000, guid: 4dcd8f2dc477f5e4aa277ee503048ee8, type: 3}
    - {fileID: 8300000, guid: 15b220b1b01e9d8469f3b754b8eb2a10, type: 3}
    - {fileID: 8300000, guid: 79a7606463e6a0748b531715f315489d, type: 3}
    - {fileID: 8300000, guid: aa859614ff9b2234e8547d93e1cd9e73, type: 3}
  - texture: {fileID: 2800000, guid: b7092185d138e6240b14133750049404, type: 3}
    audioclips:
    - {fileID: 8300000, guid: 18f1ff003e8fbdb44aba8266f6e1d168, type: 3}
    - {fileID: 8300000, guid: 59cd085e234f32e4daddd2e589174a96, type: 3}
    - {fileID: 8300000, guid: 2f96d3d47551ed848be9307342dcd667, type: 3}
    - {fileID: 8300000, guid: 4901040e735fd2547870b06a27124c49, type: 3}
    - {fileID: 8300000, guid: 4dcd8f2dc477f5e4aa277ee503048ee8, type: 3}
    - {fileID: 8300000, guid: 15b220b1b01e9d8469f3b754b8eb2a10, type: 3}
    - {fileID: 8300000, guid: 79a7606463e6a0748b531715f315489d, type: 3}
    - {fileID: 8300000, guid: aa859614ff9b2234e8547d93e1cd9e73, type: 3}
  - texture: {fileID: 2800000, guid: 700647d85b9c377458eced66f7087213, type: 3}
    audioclips:
    - {fileID: 8300000, guid: 18f1ff003e8fbdb44aba8266f6e1d168, type: 3}
    - {fileID: 8300000, guid: 59cd085e234f32e4daddd2e589174a96, type: 3}
    - {fileID: 8300000, guid: 2f96d3d47551ed848be9307342dcd667, type: 3}
    - {fileID: 8300000, guid: 4901040e735fd2547870b06a27124c49, type: 3}
    - {fileID: 8300000, guid: 4dcd8f2dc477f5e4aa277ee503048ee8, type: 3}
    - {fileID: 8300000, guid: 15b220b1b01e9d8469f3b754b8eb2a10, type: 3}
    - {fileID: 8300000, guid: 79a7606463e6a0748b531715f315489d, type: 3}
    - {fileID: 8300000, guid: aa859614ff9b2234e8547d93e1cd9e73, type: 3}
  - texture: {fileID: 2800000, guid: d115395b545f1e34088cda09117b88fc, type: 3}
    audioclips:
    - {fileID: 8300000, guid: 18f1ff003e8fbdb44aba8266f6e1d168, type: 3}
    - {fileID: 8300000, guid: 59cd085e234f32e4daddd2e589174a96, type: 3}
    - {fileID: 8300000, guid: 2f96d3d47551ed848be9307342dcd667, type: 3}
    - {fileID: 8300000, guid: 4901040e735fd2547870b06a27124c49, type: 3}
    - {fileID: 8300000, guid: 4dcd8f2dc477f5e4aa277ee503048ee8, type: 3}
    - {fileID: 8300000, guid: 15b220b1b01e9d8469f3b754b8eb2a10, type: 3}
    - {fileID: 8300000, guid: 79a7606463e6a0748b531715f315489d, type: 3}
    - {fileID: 8300000, guid: aa859614ff9b2234e8547d93e1cd9e73, type: 3}
  - texture: {fileID: 2800000, guid: 7ef065304a725da489fc8e335b04b82a, type: 3}
    audioclips:
    - {fileID: 8300000, guid: c88f941f0652e8048be78e94b6879648, type: 3}
    - {fileID: 8300000, guid: 3a9cd2eed86bb634c9da9b5864798f87, type: 3}
    - {fileID: 8300000, guid: 80239785e252f734a942b4bd5c1b91e1, type: 3}
    - {fileID: 8300000, guid: d1b0c91370b0bcb4fa83f9d084f31dba, type: 3}
    - {fileID: 8300000, guid: 07902d35c76dec04495ae89be0bca886, type: 3}
    - {fileID: 8300000, guid: b224ea4077fd9804c825863a283d50a6, type: 3}
    - {fileID: 8300000, guid: dc739d782ed6fe5439fb6de4a13f53bd, type: 3}
    - {fileID: 8300000, guid: 6cb3eace11794c84db4995aa0a617ad1, type: 3}
    - {fileID: 8300000, guid: 4437bc80104f4f84a9149c54a918b984, type: 3}
    - {fileID: 8300000, guid: 592e7903575792e48aed4b7e5b699e71, type: 3}
  - texture: {fileID: 2800000, guid: 66205e406ebef6c44a53d4a36dada6c1, type: 3}
    audioclips:
    - {fileID: 8300000, guid: 4c81a4ecdae8cd643b3b2db0d1b4b299, type: 3}
    - {fileID: 8300000, guid: ea0cfd344b2228048a5237173be05869, type: 3}
    - {fileID: 8300000, guid: 022f6e01d99ecb14b9be94c6dc9a4cb3, type: 3}
    - {fileID: 8300000, guid: 490663ea811d38144acda4c2ed0c7e89, type: 3}
    - {fileID: 8300000, guid: 3ba198cec1dabec47bbd8be0980c6988, type: 3}
    - {fileID: 8300000, guid: fae04a0d5f66f3c49aa6d40d9e1746e9, type: 3}
  - texture: {fileID: 2800000, guid: 42a91a090222e8948a229c10e2b60a81, type: 3}
    audioclips:
    - {fileID: 8300000, guid: 7a1ca87fc8b38af43bd269e557438cf3, type: 3}
    - {fileID: 8300000, guid: e85ebefcaa228bc42adb2554e5a428d4, type: 3}
    - {fileID: 8300000, guid: 363fb6bde7237674c9ab1b4ea4db05a3, type: 3}
    - {fileID: 8300000, guid: bd2e21727b290c94586e70231e309cbd, type: 3}
    - {fileID: 8300000, guid: 7e30146df5f9bb84d9d63ed8211311b9, type: 3}
    - {fileID: 8300000, guid: dc51086bc85dc5448b059b6487ce0e0b, type: 3}
    - {fileID: 8300000, guid: bf247942e61355f4d9d1804c09c647ee, type: 3}
    - {fileID: 8300000, guid: 50d72a013f13ce0488147b799a838890, type: 3}
  - texture: {fileID: 2800000, guid: a28275b5e44d45d46b095b81f29862b4, type: 3}
    audioclips:
    - {fileID: 8300000, guid: 22b5b26c3429f42c482afafb562afc2a, type: 3}
    - {fileID: 8300000, guid: a948133482bd9461cbcb85c1b36c59b7, type: 3}
    - {fileID: 8300000, guid: 8033517be0e2b4a939b3f8ffacc6f4d5, type: 3}
    - {fileID: 8300000, guid: f65c4ff197551410b9f70b804410c961, type: 3}
    - {fileID: 8300000, guid: c71a1656ec801453da6b0fc7884f77fe, type: 3}
    - {fileID: 8300000, guid: 23684c2373aa34787b0d7b3349bdd2e6, type: 3}
    - {fileID: 8300000, guid: dd1266cc97b6b4a38a280331273cb1ed, type: 3}
    - {fileID: 8300000, guid: 1c30db6cd8fb645049fe02656a68d721, type: 3}
    - {fileID: 8300000, guid: 8148972f644724dc6ab272a4f7e24faa, type: 3}
    - {fileID: 8300000, guid: a476e34385a8f43f5a7cd7280badc54f, type: 3}
  - texture: {fileID: 2800000, guid: 66bfffbfc1446e24dbf6081d20fc9daa, type: 3}
    audioclips:
    - {fileID: 8300000, guid: d9a50401294cf994db997588f91d42e3, type: 3}
    - {fileID: 8300000, guid: 9be71da04af2bc54f86d0d71e776b4f6, type: 3}
    - {fileID: 8300000, guid: a02e47b49f3156e40ada3797f5a7a5b7, type: 3}
    - {fileID: 8300000, guid: 6544c41040573c14bb7b76beab3138f9, type: 3}
    - {fileID: 8300000, guid: 02d3537f01013d24284d147c8980b37a, type: 3}
  - texture: {fileID: 2800000, guid: f6605a6d90c197c4d99424a12dffb35c, type: 3}
    audioclips:
    - {fileID: 8300000, guid: 7800f7bda4bc68f43a86d88827cd082a, type: 3}
    - {fileID: 8300000, guid: c7449f353fcce324787a755ffee82b68, type: 3}
    - {fileID: 8300000, guid: 62ac9bf37e313514e81b24534d632d69, type: 3}
    - {fileID: 8300000, guid: de00eccdf54c99c40b5bd4bddfb8502c, type: 3}
  - texture: {fileID: 2800000, guid: aad8ca4f67b548c4c968d86efaec686d, type: 3}
    audioclips:
    - {fileID: 8300000, guid: 7800f7bda4bc68f43a86d88827cd082a, type: 3}
    - {fileID: 8300000, guid: c7449f353fcce324787a755ffee82b68, type: 3}
    - {fileID: 8300000, guid: 62ac9bf37e313514e81b24534d632d69, type: 3}
    - {fileID: 8300000, guid: de00eccdf54c99c40b5bd4bddfb8502c, type: 3}
  - texture: {fileID: 2800000, guid: 05dcd851a89870941b4cc2712b372480, type: 3}
    audioclips:
    - {fileID: 8300000, guid: 7800f7bda4bc68f43a86d88827cd082a, type: 3}
    - {fileID: 8300000, guid: c7449f353fcce324787a755ffee82b68, type: 3}
    - {fileID: 8300000, guid: 62ac9bf37e313514e81b24534d632d69, type: 3}
    - {fileID: 8300000, guid: de00eccdf54c99c40b5bd4bddfb8502c, type: 3}
  - texture: {fileID: 2800000, guid: badc4e58ab4c4de4fbc591540c5ccbe1, type: 3}
    audioclips:
    - {fileID: 8300000, guid: 8b5f07294b230a944869653722ee5684, type: 3}
    - {fileID: 8300000, guid: 7c51e225e1cb00d4baadf7119adaf5e8, type: 3}
    - {fileID: 8300000, guid: 37c855efe1f45cb44974f892b3132433, type: 3}
    - {fileID: 8300000, guid: 0b1f229db8e3fc9438ea38902e4ce197, type: 3}
    - {fileID: 8300000, guid: 379b0fe42121f424a97388c36c19aefe, type: 3}
    - {fileID: 8300000, guid: 441acaaf11081a54e8d56597cb71bec6, type: 3}
    - {fileID: 8300000, guid: 2fc9e832943dc5b4b95f7873252b1f77, type: 3}
    - {fileID: 8300000, guid: 894f78bd81863444681ed37c0cb884f3, type: 3}
