%YAML 1.1
%TAG !u! tag:unity3d.com,2011:
--- !u!114 &11400000
MonoBehaviour:
  m_ObjectHideFlags: 0
  m_CorrespondingSourceObject: {fileID: 0}
  m_PrefabInternal: {fileID: 0}
  m_GameObject: {fileID: 0}
  m_Enabled: 1
  m_EditorHideFlags: 0
  m_Script: {fileID: 11500000, guid: 5e767997560602a4988b6ad19b2bb04e, type: 3}
  m_Name: PlayerVoiceDatabase
  m_EditorClassIdentifier: 
  usualClips: []
  attackClips:
  - {fileID: 8300000, guid: bf2fbeb8562bf4d9f917e5e3abead234, type: 3}
  huntingClips: []
  hurtClips:
  - {fileID: 8300000, guid: 2f92a5275e8ba45cfac7f61952168daf, type: 3}
  - {fileID: 8300000, guid: e9c8127d9a14d41f8ba242a7c8ce8a60, type: 3}
  deadClips:
  - {fileID: 8300000, guid: 4d141e83e23bd4af9a84a70e989042e0, type: 3}
  screamClips: []
